{
  "hosting": {
    "name": "FlowerPKG example hosting"
  },
  "main": {
    "1": {
      "title": "Hello World",
      "icon": "https://gitlab.com/logo4poop/logo4poop-icons/blob/master/index.png",
      "directdownload": "https://github.com/simplificator/phonegap-helloworld/raw/master/android/bin/Hello%20World.apk",
      "description": "Phonegap's hello world example.",
      "checksum": "d8f261f52da6501b5dc49d7426906def10dd3c4afb8c6c228945a2c3d43b595c"
    }
  },
  "core": {
    "1": {
      "title": "Pangolin Desktop",
      "icon": "https://avatars0.githubusercontent.com/u/48005389?s=200&v=4",    
      "directdownload": "https://github.com/dahlia-os/UI-Apk/raw/master/Desktop-UI-Debug/0.2.2/pangolin-desktop-0.2.2.apk",
      "description": "DahliaOS Ui",
      "checksum": "bda053ba75432f4ffc49928161fdcb7ee2a0173ec1f1c1e70a5b7029ecdc188e"
    }
  }
}
